﻿


EVENT   1
 PAGE   1
  0()



EVENT   2
 PAGE   1
  0()



EVENT   3
 PAGE   1
  0()



EVENT   4
 PAGE   1
  0()



EVENT   5
 PAGE   1
  0()



EVENT   6
 PAGE   1
  0()



EVENT   7
 PAGE   1
  0()



EVENT   8
 PAGE   1
  0()



EVENT   9
 PAGE   1
  281(1)
  250(bytes(0x04,0x08,0x6f,0x3a,0x0c,0x52,0x50,0x47,0x3a,0x3a,0x53,0x45,0x08,0x3a,0x0a,0x40,0x6e,0x61,0x6d,0x65,0x49,0x22,0x09,0x4d,0x6f,0x76,0x65,0x06,0x3a,0x06,0x45,0x54,0x3a,0x0b,0x40,0x70,0x69,0x74,0x63,0x68,0x69,0x69,0x3a,0x0c,0x40,0x76,0x6f,0x6c,0x75,0x6d,0x65,0x69,0x55))
  TeleportPlayer(0,186,8,47,0,0)
  0()



EVENT   10
 PAGE   1
  281(1)
  250(bytes(0x04,0x08,0x6f,0x3a,0x0c,0x52,0x50,0x47,0x3a,0x3a,0x53,0x45,0x08,0x3a,0x0a,0x40,0x6e,0x61,0x6d,0x65,0x49,0x22,0x09,0x4d,0x6f,0x76,0x65,0x06,0x3a,0x06,0x45,0x54,0x3a,0x0b,0x40,0x70,0x69,0x74,0x63,0x68,0x69,0x69,0x3a,0x0c,0x40,0x76,0x6f,0x6c,0x75,0x6d,0x65,0x69,0x55))
  TeleportPlayer(0,186,9,47,0,0)
  0()



EVENT   11
 PAGE   1
  281(1)
  250(bytes(0x04,0x08,0x6f,0x3a,0x0c,0x52,0x50,0x47,0x3a,0x3a,0x53,0x45,0x08,0x3a,0x0a,0x40,0x6e,0x61,0x6d,0x65,0x49,0x22,0x09,0x4d,0x6f,0x76,0x65,0x06,0x3a,0x06,0x45,0x54,0x3a,0x0b,0x40,0x70,0x69,0x74,0x63,0x68,0x69,0x69,0x3a,0x0c,0x40,0x76,0x6f,0x6c,0x75,0x6d,0x65,0x69,0x55))
  TeleportPlayer(0,186,17,34,0,0)
  0()



EVENT   12
 PAGE   1
  281(1)
  250(bytes(0x04,0x08,0x6f,0x3a,0x0c,0x52,0x50,0x47,0x3a,0x3a,0x53,0x45,0x08,0x3a,0x0a,0x40,0x6e,0x61,0x6d,0x65,0x49,0x22,0x09,0x4d,0x6f,0x76,0x65,0x06,0x3a,0x06,0x45,0x54,0x3a,0x0b,0x40,0x70,0x69,0x74,0x63,0x68,0x69,0x69,0x3a,0x0c,0x40,0x76,0x6f,0x6c,0x75,0x6d,0x65,0x69,0x55))
  TeleportPlayer(0,186,18,34,0,0)
  0()



EVENT   13
 PAGE   1
  250(bytes(0x04,0x08,0x6f,0x3a,0x0c,0x52,0x50,0x47,0x3a,0x3a,0x53,0x45,0x08,0x3a,0x0a,0x40,0x6e,0x61,0x6d,0x65,0x49,0x22,0x09,0x4d,0x6f,0x76,0x65,0x06,0x3a,0x06,0x45,0x54,0x3a,0x0b,0x40,0x70,0x69,0x74,0x63,0x68,0x69,0x69,0x3a,0x0c,0x40,0x76,0x6f,0x6c,0x75,0x6d,0x65,0x69,0x55))
  TeleportPlayer(0,222,28,35,2,0)
  0()



EVENT   14
 PAGE   1
  250(bytes(0x04,0x08,0x6f,0x3a,0x0c,0x52,0x50,0x47,0x3a,0x3a,0x53,0x45,0x08,0x3a,0x0a,0x40,0x6e,0x61,0x6d,0x65,0x49,0x22,0x09,0x4d,0x6f,0x76,0x65,0x06,0x3a,0x06,0x45,0x54,0x3a,0x0b,0x40,0x70,0x69,0x74,0x63,0x68,0x69,0x69,0x3a,0x0c,0x40,0x76,0x6f,0x6c,0x75,0x6d,0x65,0x69,0x55))
  TeleportPlayer(0,222,3,29,2,0)
  0()



EVENT   15
 PAGE   1
  281(1)
  250(bytes(0x04,0x08,0x6f,0x3a,0x0c,0x52,0x50,0x47,0x3a,0x3a,0x53,0x45,0x08,0x3a,0x0a,0x40,0x6e,0x61,0x6d,0x65,0x49,0x22,0x09,0x4d,0x6f,0x76,0x65,0x06,0x3a,0x06,0x45,0x54,0x3a,0x0b,0x40,0x70,0x69,0x74,0x63,0x68,0x69,0x69,0x3a,0x0c,0x40,0x76,0x6f,0x6c,0x75,0x6d,0x65,0x69,0x55))
  TeleportPlayer(0,186,19,48,0,0)
  0()



EVENT   16
 PAGE   1
  281(1)
  250(bytes(0x04,0x08,0x6f,0x3a,0x0c,0x52,0x50,0x47,0x3a,0x3a,0x53,0x45,0x08,0x3a,0x0a,0x40,0x6e,0x61,0x6d,0x65,0x49,0x22,0x09,0x4d,0x6f,0x76,0x65,0x06,0x3a,0x06,0x45,0x54,0x3a,0x0b,0x40,0x70,0x69,0x74,0x63,0x68,0x69,0x69,0x3a,0x0c,0x40,0x76,0x6f,0x6c,0x75,0x6d,0x65,0x69,0x55))
  TeleportPlayer(0,186,20,48,0,0)
  0()



EVENT   17
 PAGE   1
  281(1)
  250(bytes(0x04,0x08,0x6f,0x3a,0x0c,0x52,0x50,0x47,0x3a,0x3a,0x53,0x45,0x08,0x3a,0x0a,0x40,0x6e,0x61,0x6d,0x65,0x49,0x22,0x09,0x4d,0x6f,0x76,0x65,0x06,0x3a,0x06,0x45,0x54,0x3a,0x0b,0x40,0x70,0x69,0x74,0x63,0x68,0x69,0x69,0x3a,0x0c,0x40,0x76,0x6f,0x6c,0x75,0x6d,0x65,0x69,0x55))
  TeleportPlayer(0,183,6,29,0,0)
  0()



EVENT   18
 PAGE   1
  281(1)
  250(bytes(0x04,0x08,0x6f,0x3a,0x0c,0x52,0x50,0x47,0x3a,0x3a,0x53,0x45,0x08,0x3a,0x0a,0x40,0x6e,0x61,0x6d,0x65,0x49,0x22,0x09,0x4d,0x6f,0x76,0x65,0x06,0x3a,0x06,0x45,0x54,0x3a,0x0b,0x40,0x70,0x69,0x74,0x63,0x68,0x69,0x69,0x3a,0x0c,0x40,0x76,0x6f,0x6c,0x75,0x6d,0x65,0x69,0x55))
  TeleportPlayer(0,183,12,29,0,0)
  0()



EVENT   19
 PAGE   1
  281(1)
  250(bytes(0x04,0x08,0x6f,0x3a,0x0c,0x52,0x50,0x47,0x3a,0x3a,0x53,0x45,0x08,0x3a,0x0a,0x40,0x6e,0x61,0x6d,0x65,0x49,0x22,0x09,0x4d,0x6f,0x76,0x65,0x06,0x3a,0x06,0x45,0x54,0x3a,0x0b,0x40,0x70,0x69,0x74,0x63,0x68,0x69,0x69,0x3a,0x0c,0x40,0x76,0x6f,0x6c,0x75,0x6d,0x65,0x69,0x55))
  TeleportPlayer(0,183,7,13,0,0)
  0()



EVENT   20
 PAGE   1
  281(1)
  250(bytes(0x04,0x08,0x6f,0x3a,0x0c,0x52,0x50,0x47,0x3a,0x3a,0x53,0x45,0x08,0x3a,0x0a,0x40,0x6e,0x61,0x6d,0x65,0x49,0x22,0x09,0x4d,0x6f,0x76,0x65,0x06,0x3a,0x06,0x45,0x54,0x3a,0x0b,0x40,0x70,0x69,0x74,0x63,0x68,0x69,0x69,0x3a,0x0c,0x40,0x76,0x6f,0x6c,0x75,0x6d,0x65,0x69,0x55))
  TeleportPlayer(0,183,8,13,0,0)
  0()



EVENT   21
 PAGE   1
  250(bytes(0x04,0x08,0x6f,0x3a,0x0c,0x52,0x50,0x47,0x3a,0x3a,0x53,0x45,0x08,0x3a,0x0a,0x40,0x6e,0x61,0x6d,0x65,0x49,0x22,0x09,0x4d,0x6f,0x76,0x65,0x06,0x3a,0x06,0x45,0x54,0x3a,0x0b,0x40,0x70,0x69,0x74,0x63,0x68,0x69,0x69,0x3a,0x0c,0x40,0x76,0x6f,0x6c,0x75,0x6d,0x65,0x69,0x55))
  TeleportPlayer(0,222,84,6,2,0)
  0()



EVENT   22
 PAGE   1
  250(bytes(0x04,0x08,0x6f,0x3a,0x0c,0x52,0x50,0x47,0x3a,0x3a,0x53,0x45,0x08,0x3a,0x0a,0x40,0x6e,0x61,0x6d,0x65,0x49,0x22,0x09,0x4d,0x6f,0x76,0x65,0x06,0x3a,0x06,0x45,0x54,0x3a,0x0b,0x40,0x70,0x69,0x74,0x63,0x68,0x69,0x69,0x3a,0x0c,0x40,0x76,0x6f,0x6c,0x75,0x6d,0x65,0x69,0x55))
  TeleportPlayer(0,222,59,6,2,0)
  0()



EVENT   23
 PAGE   1
  281(1)
  250(bytes(0x04,0x08,0x6f,0x3a,0x0c,0x52,0x50,0x47,0x3a,0x3a,0x53,0x45,0x08,0x3a,0x0a,0x40,0x6e,0x61,0x6d,0x65,0x49,0x22,0x09,0x4d,0x6f,0x76,0x65,0x06,0x3a,0x06,0x45,0x54,0x3a,0x0b,0x40,0x70,0x69,0x74,0x63,0x68,0x69,0x69,0x3a,0x0c,0x40,0x76,0x6f,0x6c,0x75,0x6d,0x65,0x69,0x55))
  TeleportPlayer(0,187,10,13,0,0)
  0()



EVENT   24
 PAGE   1
  281(1)
  250(bytes(0x04,0x08,0x6f,0x3a,0x0c,0x52,0x50,0x47,0x3a,0x3a,0x53,0x45,0x08,0x3a,0x0a,0x40,0x6e,0x61,0x6d,0x65,0x49,0x22,0x09,0x4d,0x6f,0x76,0x65,0x06,0x3a,0x06,0x45,0x54,0x3a,0x0b,0x40,0x70,0x69,0x74,0x63,0x68,0x69,0x69,0x3a,0x0c,0x40,0x76,0x6f,0x6c,0x75,0x6d,0x65,0x69,0x55))
  TeleportPlayer(0,187,20,14,0,0)
  0()



EVENT   25
 PAGE   1
  281(1)
  250(bytes(0x04,0x08,0x6f,0x3a,0x0c,0x52,0x50,0x47,0x3a,0x3a,0x53,0x45,0x08,0x3a,0x0a,0x40,0x6e,0x61,0x6d,0x65,0x49,0x22,0x09,0x4d,0x6f,0x76,0x65,0x06,0x3a,0x06,0x45,0x54,0x3a,0x0b,0x40,0x70,0x69,0x74,0x63,0x68,0x69,0x69,0x3a,0x0c,0x40,0x76,0x6f,0x6c,0x75,0x6d,0x65,0x69,0x55))
  TeleportPlayer(0,187,16,49,0,0)
  0()



EVENT   26
 PAGE   1
  281(1)
  250(bytes(0x04,0x08,0x6f,0x3a,0x0c,0x52,0x50,0x47,0x3a,0x3a,0x53,0x45,0x08,0x3a,0x0a,0x40,0x6e,0x61,0x6d,0x65,0x49,0x22,0x09,0x4d,0x6f,0x76,0x65,0x06,0x3a,0x06,0x45,0x54,0x3a,0x0b,0x40,0x70,0x69,0x74,0x63,0x68,0x69,0x69,0x3a,0x0c,0x40,0x76,0x6f,0x6c,0x75,0x6d,0x65,0x69,0x55))
  TeleportPlayer(0,183,31,13,0,0)
  0()



EVENT   27
 PAGE   1
  281(1)
  250(bytes(0x04,0x08,0x6f,0x3a,0x0c,0x52,0x50,0x47,0x3a,0x3a,0x53,0x45,0x08,0x3a,0x0a,0x40,0x6e,0x61,0x6d,0x65,0x49,0x22,0x09,0x4d,0x6f,0x76,0x65,0x06,0x3a,0x06,0x45,0x54,0x3a,0x0b,0x40,0x70,0x69,0x74,0x63,0x68,0x69,0x69,0x3a,0x0c,0x40,0x76,0x6f,0x6c,0x75,0x6d,0x65,0x69,0x55))
  TeleportPlayer(0,183,31,13,0,0)
  0()



EVENT   28
 PAGE   1
  281(1)
  250(bytes(0x04,0x08,0x6f,0x3a,0x0c,0x52,0x50,0x47,0x3a,0x3a,0x53,0x45,0x08,0x3a,0x0a,0x40,0x6e,0x61,0x6d,0x65,0x49,0x22,0x09,0x4d,0x6f,0x76,0x65,0x06,0x3a,0x06,0x45,0x54,0x3a,0x0b,0x40,0x70,0x69,0x74,0x63,0x68,0x69,0x69,0x3a,0x0c,0x40,0x76,0x6f,0x6c,0x75,0x6d,0x65,0x69,0x55))
  TeleportPlayer(0,183,31,13,0,0)
  0()



EVENT   29
 PAGE   1
  250(bytes(0x04,0x08,0x6f,0x3a,0x0c,0x52,0x50,0x47,0x3a,0x3a,0x53,0x45,0x08,0x3a,0x0a,0x40,0x6e,0x61,0x6d,0x65,0x49,0x22,0x09,0x4d,0x6f,0x76,0x65,0x06,0x3a,0x06,0x45,0x54,0x3a,0x0b,0x40,0x70,0x69,0x74,0x63,0x68,0x69,0x69,0x3a,0x0c,0x40,0x76,0x6f,0x6c,0x75,0x6d,0x65,0x69,0x55))
  TeleportPlayer(0,222,97,58,2,0)
  0()



EVENT   30
 PAGE   1
  250(bytes(0x04,0x08,0x6f,0x3a,0x0c,0x52,0x50,0x47,0x3a,0x3a,0x53,0x45,0x08,0x3a,0x0a,0x40,0x6e,0x61,0x6d,0x65,0x49,0x22,0x09,0x4d,0x6f,0x76,0x65,0x06,0x3a,0x06,0x45,0x54,0x3a,0x0b,0x40,0x70,0x69,0x74,0x63,0x68,0x69,0x69,0x3a,0x0c,0x40,0x76,0x6f,0x6c,0x75,0x6d,0x65,0x69,0x55))
  TeleportPlayer(0,222,61,57,2,0)
  0()



EVENT   31
 PAGE   1
  281(1)
  250(bytes(0x04,0x08,0x6f,0x3a,0x0c,0x52,0x50,0x47,0x3a,0x3a,0x53,0x45,0x08,0x3a,0x0a,0x40,0x6e,0x61,0x6d,0x65,0x49,0x22,0x09,0x4d,0x6f,0x76,0x65,0x06,0x3a,0x06,0x45,0x54,0x3a,0x0b,0x40,0x70,0x69,0x74,0x63,0x68,0x69,0x69,0x3a,0x0c,0x40,0x76,0x6f,0x6c,0x75,0x6d,0x65,0x69,0x55))
  TeleportPlayer(0,183,30,31,0,0)
  0()



EVENT   32
 PAGE   1
  281(1)
  250(bytes(0x04,0x08,0x6f,0x3a,0x0c,0x52,0x50,0x47,0x3a,0x3a,0x53,0x45,0x08,0x3a,0x0a,0x40,0x6e,0x61,0x6d,0x65,0x49,0x22,0x09,0x4d,0x6f,0x76,0x65,0x06,0x3a,0x06,0x45,0x54,0x3a,0x0b,0x40,0x70,0x69,0x74,0x63,0x68,0x69,0x69,0x3a,0x0c,0x40,0x76,0x6f,0x6c,0x75,0x6d,0x65,0x69,0x55))
  TeleportPlayer(0,183,30,31,0,0)
  0()



EVENT   33
 PAGE   1
  281(1)
  250(bytes(0x04,0x08,0x6f,0x3a,0x0c,0x52,0x50,0x47,0x3a,0x3a,0x53,0x45,0x08,0x3a,0x0a,0x40,0x6e,0x61,0x6d,0x65,0x49,0x22,0x09,0x4d,0x6f,0x76,0x65,0x06,0x3a,0x06,0x45,0x54,0x3a,0x0b,0x40,0x70,0x69,0x74,0x63,0x68,0x69,0x69,0x3a,0x0c,0x40,0x76,0x6f,0x6c,0x75,0x6d,0x65,0x69,0x55))
  TeleportPlayer(0,183,30,31,0,0)
  0()



EVENT   34
 PAGE   1
  281(1)
  250(bytes(0x04,0x08,0x6f,0x3a,0x0c,0x52,0x50,0x47,0x3a,0x3a,0x53,0x45,0x08,0x3a,0x0a,0x40,0x6e,0x61,0x6d,0x65,0x49,0x22,0x09,0x4d,0x6f,0x76,0x65,0x06,0x3a,0x06,0x45,0x54,0x3a,0x0b,0x40,0x70,0x69,0x74,0x63,0x68,0x69,0x69,0x3a,0x0c,0x40,0x76,0x6f,0x6c,0x75,0x6d,0x65,0x69,0x55))
  TeleportPlayer(0,187,7,38,0,0)
  0()



EVENT   35
 PAGE   1
  281(1)
  250(bytes(0x04,0x08,0x6f,0x3a,0x0c,0x52,0x50,0x47,0x3a,0x3a,0x53,0x45,0x08,0x3a,0x0a,0x40,0x6e,0x61,0x6d,0x65,0x49,0x22,0x09,0x4d,0x6f,0x76,0x65,0x06,0x3a,0x06,0x45,0x54,0x3a,0x0b,0x40,0x70,0x69,0x74,0x63,0x68,0x69,0x69,0x3a,0x0c,0x40,0x76,0x6f,0x6c,0x75,0x6d,0x65,0x69,0x55))
  TeleportPlayer(0,187,7,38,0,0)
  0()



EVENT   36
 PAGE   1
  281(1)
  250(bytes(0x04,0x08,0x6f,0x3a,0x0c,0x52,0x50,0x47,0x3a,0x3a,0x53,0x45,0x08,0x3a,0x0a,0x40,0x6e,0x61,0x6d,0x65,0x49,0x22,0x09,0x4d,0x6f,0x76,0x65,0x06,0x3a,0x06,0x45,0x54,0x3a,0x0b,0x40,0x70,0x69,0x74,0x63,0x68,0x69,0x69,0x3a,0x0c,0x40,0x76,0x6f,0x6c,0x75,0x6d,0x65,0x69,0x55))
  TeleportPlayer(0,187,7,38,0,0)
  0()



EVENT   37
 PAGE   1
  ShowMessageFace("",0,0,2,1)
  ShowMessage("\\n<商人>魔の大陸じゃ、うちで扱ってるくらいの武具がないと話にならないよ。")
  ShowMessage("お金で命を守ると思って、どしどし買っていってくれ。")
  Shop(1,29,0,0,false)
  605(1,230,0,0)
  605(1,813,0,0)
  605(1,908,0,0)
  605(2,92,0,0)
  605(2,221,0,0)
  605(2,316,0,0)
  0()



EVENT   38
 PAGE   1
  ShowMessageFace("",0,0,2,1)
  ShowMessage("\\n<ワイバーン鍛冶>竜の鍛冶屋は世界一！")
  ShowMessage("さあ、何が必要だ……？")
  355("call_synthesize(21)")
  0()



EVENT   39
 PAGE   1
  ShowMessageFace("",0,0,2,1)
  ShowMessage("\\n<酒場のおやじ>いらっしゃい、何にする？")
  Shop(0,428,0,0,false)
  605(0,431,0,0)
  0()



EVENT   40
 PAGE   1
  ShowMessageFace("",0,0,2,1)
  ShowMessage("\\n<アクセサリ屋>アクセサリをどうぞ。")
  ShowMessage("身を守る便利な品が揃っていますよ。")
  Shop(2,1091,0,0,false)
  605(2,1104,0,0)
  605(2,1105,0,0)
  605(2,1106,0,0)
  605(2,1127,0,0)
  0()



EVENT   41
 PAGE   1
  ShowMessageFace("",0,0,2,1)
  ShowMessage("\\n<神父>神聖なるレミナ教会にようこそ。")
  ShowMessage("何のご用ですかな？")
  ShowChoices(strings("お祈りをする","転職・パーティ編成","用はない"),3)
  IfPlayerPicksChoice(0,null)
   ChangeVariable(1002,1002,0,0,39)
   ShowMessageFace("",0,0,2,2)
   ShowMessage("\\n<神父>それでは、イリアス様に祈りましょう。")
   ShowMessage("……ああ、この場に導きの縁を感じます。")
   ShowMessageFace("",0,0,2,3)
   ShowMessage("\\n<神父>もし旅先で何かあった場合、この場に導かれるでしょう。")
   ShowMessage("イリアス様のご加護があらん事を……")
   0()
  IfPlayerPicksChoice(1,null)
   RunCommonEvent(113)
   EndEventProcessing()
   0()
  IfPlayerPicksChoice(2,null)
   ShowMessageFace("",0,0,2,4)
   ShowMessage("\\n<神父>イリアス様のご加護があらん事を……")
   0()
  404()
  0()



EVENT   42
 PAGE   1
  If(1,833,0,2,1)
   If(0,1582,1)
    ShowMessageFace("mob_douguya_fc1",0,0,2,1)
    ShowMessage("\\n<オーロラ>あなたの旅に、ご一緒していいでしょうか？")
    ShowMessage("薬の知識、役に立つはずです。")
    ShowChoices(strings("仲間にする","仲間にしない"),0)
    IfPlayerPicksChoice(0,null)
     ShowMessageFace("mob_douguya_fc1",0,0,2,2)
     ShowMessage("\\n<オーロラ>それでは、準備を済ませて……")
     ShowMessage("さあ、行きましょう。")
     PictureClear(5)
     205(0,bytes(0x04,0x08,0x6f,0x3a,0x13,0x52,0x50,0x47,0x3a,0x3a,0x4d,0x6f,0x76,0x65,0x52,0x6f,0x75,0x74,0x65,0x09,0x3a,0x0c,0x40,0x72,0x65,0x70,0x65,0x61,0x74,0x46,0x3a,0x0f,0x40,0x73,0x6b,0x69,0x70,0x70,0x61,0x62,0x6c,0x65,0x46,0x3a,0x0a,0x40,0x77,0x61,0x69,0x74,0x54,0x3a,0x0a,0x40,0x6c,0x69,0x73,0x74,0x5b,0x09,0x6f,0x3a,0x15,0x52,0x50,0x47,0x3a,0x3a,0x4d,0x6f,0x76,0x65,0x43,0x6f,0x6d,0x6d,0x61,0x6e,0x64,0x07,0x3a,0x0a,0x40,0x63,0x6f,0x64,0x65,0x69,0x2a,0x3a,0x10,0x40,0x70,0x61,0x72,0x61,0x6d,0x65,0x74,0x65,0x72,0x73,0x5b,0x00,0x6f,0x3b,0x0a,0x07,0x3b,0x0b,0x69,0x0f,0x3b,0x0c,0x5b,0x00,0x6f,0x3b,0x0a,0x07,0x3b,0x0b,0x69,0x2c,0x3b,0x0c,0x5b,0x00,0x6f,0x3b,0x0a,0x07,0x3b,0x0b,0x69,0x00,0x3b,0x0c,0x5b,0x00))
     355("add_actor_ex(582)")
     249(bytes(0x04,0x08,0x6f,0x3a,0x0c,0x52,0x50,0x47,0x3a,0x3a,0x4d,0x45,0x08,0x3a,0x0a,0x40,0x6e,0x61,0x6d,0x65,0x49,0x22,0x0c,0x66,0x61,0x6e,0x66,0x61,0x6c,0x65,0x06,0x3a,0x06,0x45,0x54,0x3a,0x0b,0x40,0x70,0x69,0x74,0x63,0x68,0x69,0x69,0x3a,0x0c,0x40,0x76,0x6f,0x6c,0x75,0x6d,0x65,0x69,0x69))
     ShowMessageFace("",0,0,2,3)
     ShowMessage("オーロラが仲間に加わった！")
     Wait(60)
     EndEventProcessing()
     0()
    IfPlayerPicksChoice(1,null)
     ShowMessageFace("mob_douguya_fc1",0,0,2,4)
     ShowMessage("\\n<オーロラ>そうですか……残念です。")
     0()
    404()
    0()
   EndIf()
   0()
  EndIf()
  ShowMessageFace("mob_douguya_fc1",0,0,2,5)
  ShowMessage("\\n<オーロラ>アイテムが欲しいのですか？")
  ShowMessage("それとも……私とバトルファックをお望みですか？")
  ShowChoices(strings("買い物","バトルファック"),2)
  IfPlayerPicksChoice(0,null)
   Shop(0,2,0,0,false)
   605(0,7,0,0)
   605(0,11,0,0)
   605(0,13,0,0)
   605(0,14,0,0)
   605(0,15,0,0)
   605(0,16,0,0)
   605(0,17,0,0)
   605(0,18,0,0)
   605(0,19,0,0)
   605(0,20,0,0)
   605(0,21,0,0)
   605(0,23,0,0)
   605(0,35,0,0)
   0()
  IfPlayerPicksChoice(1,null)
   RunCommonEvent(7321)
   0()
  404()
  0()
 PAGE   2
  // condition: party contains actor #582
  0()



EVENT   43
 PAGE   1
  ShowMessageFace("",0,0,2,1)
  ShowMessage("\\n<宿屋娘>20Gになりますが、泊まっていかれますか？\\$")
  ShowChoices(strings("はい","いいえ"),2)
  IfPlayerPicksChoice(0,null)
   If(7,20,0)
    125(1,0,20)
    221()
    249(bytes(0x04,0x08,0x6f,0x3a,0x0c,0x52,0x50,0x47,0x3a,0x3a,0x4d,0x45,0x08,0x3a,0x0a,0x40,0x6e,0x61,0x6d,0x65,0x49,0x22,0x08,0x49,0x6e,0x6e,0x06,0x3a,0x06,0x45,0x54,0x3a,0x0b,0x40,0x70,0x69,0x74,0x63,0x68,0x69,0x69,0x3a,0x0c,0x40,0x76,0x6f,0x6c,0x75,0x6d,0x65,0x69,0x69))
    Wait(150)
    314(0,0)
    222()
    0()
   Else()
    ShowMessageFace("",0,0,2,2)
    ShowMessage("\\n<宿屋娘>お手持ちが不足しているようです……")
    0()
   EndIf()
   0()
  IfPlayerPicksChoice(1,null)
   0()
  404()
  EndEventProcessing()
  0()



EVENT   44
 PAGE   1
  ShowMessageFace("",0,0,2,1)
  ShowMessage("\\n<定食屋のおふくろ>さて、何を注文するんだい？")
  Shop(0,361,0,0,true)
  605(0,363,0,0)
  605(0,364,0,0)
  605(0,365,0,0)
  605(0,380,0,0)
  605(0,388,0,0)
  605(0,389,0,0)
  0()



EVENT   45
 PAGE   1
  ShowMessageFace("usagi_fc1",0,0,2,1)
  ShowMessage("\\n<ウサギ店主>あら、いらっしゃい。")
  ShowMessage("人間が飲んでも死なないようなお酒は……")
  Shop(0,429,0,0,false)
  605(0,430,0,0)
  605(0,431,0,0)
  0()



EVENT   46
 PAGE   1
  ShowMessageFace("",0,0,2,1)
  ShowMessage("\\n<くのいち>忍者の最上級職「淫流くのいち」は、淫技のエキスパート。")
  ShowMessage("豊富な快楽攻撃で、敵を責め抜くのよ。")
  ShowMessageFace(binary"",0,0,2,2)
  ShowMessage("\\n<くのいち>「極忍」なんていう、力任せの忍者とは全く違うわ。")
  ShowMessage("私も鍛錬を積んで、「淫流くのいち」をめざしているの。")
  0()



EVENT   47
 PAGE   1
  ShowMessageFace("",0,0,2,1)
  ShowMessage("\\n<くのいち>忍者の最上級職は、二種類存在する。")
  ShowMessage("戦闘奥義を極めた極忍と、淫術を極めた「淫流くのいち」だ。")
  ShowMessageFace("",0,0,2,2)
  ShowMessage("\\n<くのいち>それぞれ、必要とする転職アイテムが異なる……")
  ShowMessage("混同せぬように、注意するがいい。")
  0()



EVENT   48
 PAGE   1
  ShowMessageFace("",0,0,2,1)
  ShowMessage("\\n<忍者>忍者の最上級職である「極忍」は、まさに究極の忍者。")
  ShowMessage("強力無比な忍術で、敵を葬るのだ。")
  ShowMessageFace("",0,0,2,2)
  ShowMessage("\\n<忍者>淫らな術にばかりかまけた「淫流くのいち」などとは異なる……")
  ShowMessage("真の忍者の力、ぜひ身につけたいものだ。")
  0()



EVENT   49
 PAGE   1
  ShowMessageFace("youki_fc1",0,0,2,1)
  ShowMessage("\\n<鬼娘>勇者ハインリヒって、どんな奴なんだろうな……")
  ShowMessage("やっぱり、筋肉ムキムキなんだろうか。")
  ShowMessageFace("youki_fc1",0,0,2,2)
  ShowMessage("\\n<鬼娘>そういや、クィーンサキュバスに勝った勇者ルカってのもいるらしい。")
  ShowMessage("やっぱり、筋肉ムキムキなんだろうか。")
  355("actor_label_jump")
  EndEventProcessing()
  DefineLabel("538")
  ShowMessageFace("heinrich_fc1",7,0,2,3)
  ShowMessage("\\n<Heinrich>ご期待には添いかねるね……")
  EndEventProcessing()
  0()



EVENT   50
 PAGE   1
  ShowMessageFace("hituzi_fc1",3,0,2,1)
  ShowMessage("\\n<ヒツジ娘>うい～！　べらんめ～！")
  ShowMessageFace("",0,0,2,2)
  ShowMessage("これ、うちのヒツジじゃない……")
  ShowMessageFace("hituzi_fc1",3,0,2,3)
  ShowMessage("\\n<ヒツジ娘>あたしみたいな弱っちい魔物が、町の外に出たら……")
  ShowMessage("たちまち、ベヒーモス娘あたりに食われてしまうのら……")
  ShowMessageFace("behemoth_fc1",2,0,2,4)
  ShowMessage("\\n<ベヒーモス娘>お前みたいなマズそうな奴、誰が食うかよ……")
  ShowMessageFace("usagi_fc1",3,0,2,5)
  ShowMessage("\\n<ウサギ店主>あら？　ヒツジ肉って、おいしいのよ？")
  ShowMessageFace("hituzi_fc1",2,0,2,6)
  ShowMessage("\\n<ヒツジ娘>何を言うのら、このうさぎ～！")
  0()



EVENT   51
 PAGE   1
  ShowMessageFace("behemoth_fc1",0,0,2,1)
  ShowMessage("\\n<ベヒーモス娘>人間がこの店に来るなんて、珍しいな！")
  ShowMessage("あたしから、爆裂溶岩酒をおごってやろうか？")
  ShowMessageFace("ruka_fc1",0,0,2,2)
  ShowMessage("\\n<Luka>え、遠慮しておきます……")
  355("actor_label_jump")
  EndEventProcessing()
  DefineLabel("15")
  ShowMessageFace("salamander_fc1",0,0,2,3)
  ShowMessage("\\n<Salamander>爆裂溶岩酒か……")
  ShowMessage("グランベリアによく飲ませたものだ。")
  EndEventProcessing()
  0()



EVENT   52
 PAGE   1
  ShowMessageFace("hutakuti_fc1",3,0,2,1)
  ShowMessage("\\n<二口娘>魔物と人間のゴタゴタが続いて、悲しいです……")
  ShowMessage("魔王様は、なぜ種族間を引き裂くような事を……")
  355("actor_label_jump")
  EndEventProcessing()
  DefineLabel("45")
  ShowMessageFace("alicetromeria_fc1",4,0,2,2)
  ShowMessage("\\n<Alicetroemeria>さて、何故でしょうね……？")
  EndEventProcessing()
  0()



EVENT   53
 PAGE   1
  ShowMessageFace("kezyorou_fc1",0,0,2,1)
  ShowMessage("\\n<毛倡妓>うちには、大食いの子がいるからね。")
  ShowMessage("食費がかかって仕方ないよ……")
  ShowMessageFace("hutakuti_fc1",6,0,2,2)
  ShowMessage("\\n<二口娘>ご、ごめんなさ～い！")
  ShowMessageFace("kezyorou_fc1",2,0,2,3)
  ShowMessage("\\n<毛倡妓>返事をしたのは前の口かい？")
  ShowMessage("それとも、後ろの口かい……？")
  355("actor_label_jump")
  EndEventProcessing()
  DefineLabel("143")
  ShowMessageFace("eva_fc1",0,0,2,4)
  ShowMessage("\\n<Eva>あはっ、穀潰しがいるわ。")
  EndEventProcessing()
  0()



EVENT   54
 PAGE   1
  ShowMessageFace("",0,0,2,1)
  ShowMessage("\\n<若い男>僕は、レミナ生まれですから……")
  ShowMessage("魔物が町中にいる事を、不安に思った事はないですね。")
  ShowMessageFace("",0,0,2,2)
  ShowMessage("\\n<若い男>あなたも、ずいぶん魔物慣れしている様子。")
  ShowMessage("レミナ以外に、魔物と共存している場所なんて聞かないんですけどね。")
  0()



EVENT   55
 PAGE   1
  ShowMessageFace("",0,0,2,1)
  ShowMessage("\\n<若い女>私は、グランゴルドから嫁入りしてきたので……")
  ShowMessage("魔物がウロウロしているこの町に来たときは、恐怖心を抱いたものです。")
  ShowMessageFace("",0,0,2,2)
  ShowMessage("\\n<若い女>今ではもう、恐怖はありませんよ。")
  ShowMessage("皆さん温和ですし、すっかり慣れてしまいました。")
  355("actor_label_jump")
  EndEventProcessing()
  DefineLabel("569")
  ShowMessageFace("kakyouin_fc1",0,0,2,3)
  ShowMessage("\\n<花京淫>恐怖心を克服したんですね……僕もです。")
  ShowMessageFace("",0,0,2,4)
  ShowMessage("\\n<若い女>は、はぁ……")
  EndEventProcessing()
  0()



EVENT   56
 PAGE   1
  ShowMessageFace("",0,0,2,1)
  ShowMessage("\\n<少女>ママー！　二口娘ちゃんと遊びに行っていいー？")
  ShowMessageFace("",0,0,2,2)
  ShowMessage("\\n<若い女>つられて食べ過ぎるんじゃありませんよ。")
  0()



EVENT   57
 PAGE   1
  ShowMessageFace("",0,0,2,1)
  ShowMessage("\\n<研究員>ここは自由闊達な気風に溢れ、素晴らしいところです。")
  ShowMessage("欠点は、女っ気に欠けることですかね……")
  355("actor_label_jump")
  EndEventProcessing()
  DefineLabel("41")
  ShowMessageFace("stein_fc2",0,0,2,2)
  ShowMessage("\\n<Promestein>それ、欠点なんですか……？")
  EndEventProcessing()
  0()



EVENT   58
 PAGE   1
  ShowMessageFace("",0,0,2,1)
  ShowMessage("\\n<研究員>すまない、邪魔しないでくれないか。")
  ShowMessage("むむむ……反応なしか。")
  0()



EVENT   59
 PAGE   1
  ShowMessageFace("",0,0,2,1)
  ShowMessage("\\n<学者>この化合物の扱いには、慎重を要するのだ……")
  355("actor_label_jump")
  EndEventProcessing()
  DefineLabel("41")
  ShowMessageFace("stein_fc2",1,0,2,2)
  ShowMessage("\\n<Promestein>魔合リンですね。")
  ShowMessage("この匂い、懐かしいなぁ……")
  EndEventProcessing()
  DefineLabel("72")
  ShowMessageFace("phoenix_fc1",4,0,2,3)
  ShowMessage("\\n<Mini>何をしているのだ……？")
  ShowMessage("ピカピカしてるな、見せて！　見せて！")
  ShowMessageFace("",0,0,2,4)
  ShowMessage("\\n<学者>アッ、火が……火が！　近寄っちゃダメ～！")
  EndEventProcessing()
  DefineLabel("134")
  ShowMessageFace("chrom_fc2",5,0,2,5)
  ShowMessage("\\n<Chrome>儂は、もっと危険な薬品でやらかしてしまったのじゃ……")
  EndEventProcessing()
  0()



EVENT   60
 PAGE   1
  ShowMessageFace("",0,0,2,1)
  ShowMessage("\\n<研究員>筋肉には自信がないので、荷物運びはきついです。")
  0()



EVENT   61
 PAGE   1
  ShowMessageFace("",0,0,2,1)
  ShowMessage("\\n<学者>錬金術師と一緒にするな、我々は科学者なのだ。")
  ShowMessage("まあ、どこが違うかなど君達には分からないだろうね……")
  355("actor_label_jump")
  EndEventProcessing()
  DefineLabel("41")
  ShowMessageFace("stein_fc2",1,0,2,2)
  ShowMessage("\\n<Promestein>この手の人も、いつの時代にもいると思うと……")
  ShowMessage("なんだか微笑ましいですね。")
  ShowMessageFace("",0,0,2,3)
  ShowMessage("\\n<学者>な、何を言っている……？")
  ShowMessageFace("stein_fc2",1,0,2,4)
  ShowMessage("\\n<Promestein>あなたは普遍的存在です。")
  EndEventProcessing()
  0()



EVENT   62
 PAGE   1
  ShowMessageFace("",0,0,2,1)
  ShowMessage("\\n<研究員>なかなかに集中力を要します……")
  0()



EVENT   63
 PAGE   1
  ShowMessageFace("",0,0,2,1)
  ShowMessage("\\n<学者>見ろ！　ここまで純度の高い過霊水など見たことがないだろう！")
  ShowMessage("やった、やったぞ！")
  0()



EVENT   64
 PAGE   1
  ShowMessageFace("mino_fc1",0,0,2,1)
  ShowMessage("\\n<Minotauros>アクセサリでマッスルアップだ！")
  ShowMessage("オシャレもしたい年頃だしな！")
  355("actor_label_jump")
  EndEventProcessing()
  DefineLabel("216")
  ShowMessageFace("m_mino_fc1",0,0,2,2)
  ShowMessage("\\n<オデット>あらあら、うふふっ……")
  EndEventProcessing()
  0()



EVENT   65
 PAGE   1
  ShowMessageFace("mino_fc1",0,0,2,1)
  ShowMessage("\\n<Minotauros>やっぱマッスル酒は最高だな！")
  ShowMessage("……人間は飲むなよ、鼻血を吹くぜ。")
  0()



EVENT   66
 PAGE   1
  ShowMessageFace("namazu_fc1",0,0,2,1)
  ShowMessage("\\n<ナマズ娘>人間の酒は、度数が低くてあまり酔えんが……")
  ShowMessage("若者をナンパするにはもってこいじゃのう。")
  0()



EVENT   67
 PAGE   1
  ShowMessageFace("",0,0,2,1)
  ShowMessage("\\n<あらくれ>酔った勢いで、魔物の酒場に入った事があってな……")
  ShowMessage("変な酒を飲んじまって、口から炎が出たぜ。")
  0()



EVENT   68
 PAGE   1
  ShowMessageFace("",0,0,2,1)
  ShowMessage("\\n<Youth>フィアンセにプレゼントしようと思ったけど、高価だなぁ……")
  ShowMessage("しかも会心率アップ効果とか、俺がひどい目に遭う未来しか見えない。")
  0()



EVENT   69
 PAGE   1
  ShowMessageFace("kappa_fc1",0,0,2,1)
  ShowMessage("\\n<河童娘>あたしは綺麗なアクセサリより、キュウリの方が好き♪")
  ShowMessage("安くつく女でしょ……？")
  355("actor_label_jump")
  EndEventProcessing()
  DefineLabel("520")
  ShowMessageFace("lazarus3_fc1",0,0,2,2)
  ShowMessage("\\n<Lazarus>安くつく女が、一番怖ぇんだよ……")
  EndEventProcessing()
  0()



EVENT   70
 PAGE   1
  ShowMessageFace("kappa_fc1",1,0,2,1)
  ShowMessage("\\n<河童娘>かっぱっぱー♪　るんぱっぱ♪")
  0()



EVENT   71
 PAGE   1
  ShowMessageFace("basilisk_fc1",0,0,2,1)
  ShowMessage("\\n<バジリスク娘>正直、魔王様には迷惑している。")
  ShowMessage("己の野心で、人間達に戦争を挑むなど……")
  ShowMessageFace("basilisk_fc1",0,0,2,2)
  ShowMessage("\\n<バジリスク娘>魔物の側にも、不満を持っている者はいっぱいいるのだ。")
  ShowMessage("特に我々のような、人間と共存している者達はな！")
  355("actor_label_jump")
  EndEventProcessing()
  DefineLabel("45")
  ShowMessageFace("alicetromeria_fc1",4,0,2,3)
  ShowMessage("\\n<Alicetroemeria>それは失礼……")
  EndEventProcessing()
  0()



EVENT   72
 PAGE   1
  ShowMessageFace("kirin_fc1",1,0,2,1)
  ShowMessage("\\n<麒麟>未成年が酒を飲んでいいのか……じゃと？")
  ShowMessage("たわけ！　儂は二百歳を超えておるわ！")
  0()



EVENT   73
 PAGE   1
  ShowMessageFace("elf_fc1",2,0,2,1)
  ShowMessage("\\n<エルフ>エルフが淫乱だなんて、誰がそんな噂を……")
  ShowMessage("飲まなきゃやってられないわ！")
  ShowMessageFace("elf_fc1",1,0,2,2)
  ShowMessage("\\n<エルフ>これよこれ、魔酒「妖精の風」！")
  ShowMessage("人間が飲むと、カマイタチで喉がズタズタになるから注意ね。")
  If(4,12,0)
   ShowMessageFace("sylph_fc1",2,0,2,3)
   ShowMessage("\\n<Sylph>ヒューッ！")
   0()
  EndIf()
  0()



EVENT   74
 PAGE   1
  ShowMessageFace("zyakotuonna_fc1",0,0,2,1)
  ShowMessage("\\n<蛇骨女>妾の蛇どもがぐったりしておる……")
  ShowMessage("これしきで音を上げるとは、軟弱な……ぐびぐび。")
  0()



EVENT   75
 PAGE   1
  ShowMessageFace("scylla_fc1",0,0,2,1)
  ShowMessage("\\n<スキュラ>なんなの？")
  ShowMessage("人間と結婚しているスキュラは珍しい……？")
  355("actor_label_jump")
  EndEventProcessing()
  DefineLabel("289")
  ShowMessageFace("maidscyulla_fc1",1,0,2,2)
  ShowMessage("\\n<ラン>いえ……羨ましい事です。")
  EndEventProcessing()
  0()



EVENT   76
 PAGE   1
  ShowMessageFace("",0,0,2,1)
  ShowMessage("\\n<夫>妻は元メイドなので、とても家事が得意です。")
  ShowMessage("私などには勿体ない嫁ですね。")
  ShowMessageFace("",0,0,2,2)
  ShowMessage("\\n<夫>夜もすごいし……ふふふふふっ。")
  355("actor_label_jump")
  EndEventProcessing()
  DefineLabel("5")
  ShowMessageFace("alice_fc5",0,0,2,3)
  ShowMessage("\\n<Alice>エロめ……")
  EndEventProcessing()
  0()



EVENT   77
 PAGE   1
  ShowMessageFace("",0,0,2,1)
  ShowMessage("\\n<若い娘>人間の格好するの、上手でしょ？")
  ShowMessage("触手はスカートの中に、うまく収納するの。")
  355("actor_label_jump")
  EndEventProcessing()
  DefineLabel("294")
  ShowMessageFace("emily_fc1",1,0,2,2)
  ShowMessage("\\n<エミリ>あたしも、そういうの得意だよ♪")
  EndEventProcessing()
  0()



EVENT   78
 PAGE   1
  ShowMessageFace("",0,0,2,1)
  ShowMessage("\\n<少女>にょろにょろにょろ～♪")
  0()



EVENT   79
 PAGE   1
  ShowMessageFace("",0,0,2,1)
  ShowMessage("\\n<中年>に、忍者だ……")
  ShowMessage("メチャクチャ目立ってるけど、いいのか……？")
  0()



EVENT   80
 PAGE   1
  ShowMessageFace("",0,0,2,1)
  ShowMessage("\\n<ごろつき>レミナは、外じゃ「背徳の町」なんて呼ばれてるらしいな。")
  ShowMessage("魔物と一緒に住んでるだけで背徳呼ばわりとか、偏狭な奴らだぜ。")
  0()



EVENT   81
 PAGE   1
  ShowMessageFace("",0,0,2,1)
  ShowMessage("\\n<孤独な中年>ひとりメシ……")
  355("actor_label_jump")
  EndEventProcessing()
  DefineLabel("88")
  ShowMessageFace("jack_fc1",1,0,2,2)
  ShowMessage("\\n<Pumpkin>いっしょに、食べよ……？")
  EndEventProcessing()
  0()



EVENT   82
 PAGE   1
  ShowMessageFace("",0,0,2,1)
  ShowMessage("\\n<研究員>研究の後は、やっぱりこの食堂で一服だよな。")
  ShowMessage("この喧噪が、疲れた脳に刺激をもたらすよ。")
  0()



EVENT   83
 PAGE   1
  ShowMessageFace("",0,0,2,1)
  ShowMessage("\\n<研究員>とうとう指紋がなくなってしまった……")
  ShowMessage("科学者として一人前になった気がするな。")
  0()



EVENT   84
 PAGE   1
  ShowMessageFace("",0,0,2,1)
  ShowMessage("\\n<研究員>私はこの食堂、苦手です。")
  ShowMessage("酒場も一緒になってて、ガラが悪いじゃないですか……")
  0()



EVENT   85
 PAGE   1
  ShowMessageFace("",0,0,2,1)
  ShowMessage("\\n<研究員>私が自作した酒の方が美味しいな……")
  ShowMessage("いえ、もちろん違法ですよ！　黙ってて下さい！")
  0()



EVENT   86
 PAGE   1
  ShowMessageFace("",0,0,2,1)
  ShowMessage("\\n<学者>今日はなかなかの成果があった。")
  ShowMessage("奮発して、味噌汁も注文しよう！")
  355("actor_label_jump")
  EndEventProcessing()
  DefineLabel("143")
  ShowMessageFace("eva_fc1",2,0,2,2)
  ShowMessage("\\n<Eva>セコいわね……")
  EndEventProcessing()
  0()



EVENT   87
 PAGE   1
  ShowMessageFace("",0,0,2,1)
  ShowMessage("\\n<研究員>この研究所には、世界中から人員が集まっている。")
  ShowMessage("レミナ生まれの者は意外に少ないんだ。")
  ShowMessageFace("",0,0,2,2)
  ShowMessage("\\n<研究員>純粋な探究心で、研究を始めたのに……")
  ShowMessage("外道の魔導師扱いされて、故郷を追われた者も多いよ。")
  ShowMessageFace("",0,0,2,3)
  ShowMessage("\\n<研究員>世界を放浪し、ようやく自分の居場所を見つけ……")
  ShowMessage("同志達と巡り会えた喜びが、君に分かるかい？")
  355("actor_label_jump")
  EndEventProcessing()
  DefineLabel("41")
  ShowMessageFace("stein_fc2",1,0,2,4)
  ShowMessage("\\n<Promestein>ええ、よく分かります。")
  EndEventProcessing()
  DefineLabel("167")
  ShowMessageFace("lusia_fc1",0,0,2,5)
  ShowMessage("\\n<Lucia>私も同志を見つけたいですね……")
  EndEventProcessing()
  0()



EVENT   88
 PAGE   1
  ShowMessageFace("",0,0,2,1)
  ShowMessage("\\n<旅の勇者>ようやく、この町に辿り着いたが……")
  ShowMessage("とうとう自分の限界を知ってしまったよ。")
  ShowMessageFace("",0,0,2,2)
  ShowMessage("\\n<旅の勇者>勇者ハインリヒという者の噂を聞いたが、さぞ優秀なんだろうな……")
  ShowMessage("俺みたいな田舎出の勇者とは、きっと血統も才能も違うのさ。")
  ShowMessageFace("",0,0,2,3)
  ShowMessage("\\n<旅の勇者>……って、なんだこのナメクジ娘？")
  0()



EVENT   89
 PAGE   1
  ShowMessageFace("",0,0,2,1)
  ShowMessage("\\n<旅の戦士>この町では、冒険を諦める者も多く目にする。")
  ShowMessage("それでも、生きて引退できるだけマシな方だがな……")
  ShowMessageFace("",0,0,2,2)
  ShowMessage("\\n<旅の戦士>かくいう私も、ヘルゴンド大陸の魔物相手ではほとんど歯が立たん。")
  ShowMessage("逃げ回っては命を繋ぐ有様だ……")
  ShowMessageFace("",0,0,2,3)
  ShowMessage("\\n<旅の戦士>……ところで、なんだこのナメクジ娘？")
  0()



EVENT   90
 PAGE   1
  ShowMessageFace("name_fc1",0,0,2,1)
  ShowMessage("\\n<ナメクジ娘>じめじめした空気だから、寄ってきたわ……")
  355("actor_label_jump")
  EndEventProcessing()
  DefineLabel("55")
  ShowMessageFace("name_fc1",0,0,2,2)
  ShowMessage("\\n<Melk>じめじめ……")
  EndEventProcessing()
  DefineLabel("85")
  ShowMessageFace("highslag_fc1",0,0,2,3)
  ShowMessage("\\n<Elizabeth>うふふっ、いい空気ね……")
  EndEventProcessing()
  0()



EVENT   91
 PAGE   1
  ShowMessageFace("",0,0,2,1)
  ShowMessage("\\n<老婆>この町では、イリアス様を崇拝するだけで白い目で見られるよ……")
  ShowMessage("昔も風当たりは良くなかったが、ここまでじゃなかったねぇ。")
  0()



EVENT   92
 PAGE   1
  ShowMessageFace("",0,0,2,1)
  ShowMessage("\\n<老人>いつかこの町に、神の裁きが下るぞ！")
  ShowMessage("科学などに惑わされる愚か者どもを、この町から追い払わねば！")
  0()



EVENT   93
 PAGE   1
  ShowMessageFace("",0,0,2,1)
  ShowMessage("\\n<シスター>神よ、科学を盲進する者達に裁きを……")
  ShowMessage("人を救うのは科学ではなく、神の言葉に従う事のみなのです。")
  355("actor_label_jump")
  EndEventProcessing()
  DefineLabel("41")
  ShowMessageFace("stein_fc2",0,0,2,2)
  ShowMessage("\\n<Promestein>神も科学も、人を救ったりはしませんよ。")
  EndEventProcessing()
  0()



EVENT   94
 PAGE   1
  ShowMessageFace("",0,0,2,1)
  ShowMessage("\\n<神官>何よりもまず、魔物どもをこの町から追い出さねばならん！")
  ShowMessage("サン・イリアより十字軍を派遣してもらうのが良策であろう！")
  355("actor_label_jump")
  EndEventProcessing()
  DefineLabel("531")
  ShowMessageFace("saniria_fc2",0,0,2,2)
  ShowMessage("\\n<King of San Ilia>この時代のサン・イリア王は……フェリペ7世か。")
  ShowMessage("かの賢君ならば、このような要請には応じまい。")
  EndEventProcessing()
  0()



EVENT   95
 PAGE   1
  ShowMessageFace("",0,0,2,1)
  ShowMessage("\\n<神官>人々が信仰を失ったのは堕落ではなく、我々神官の傲慢さではないだろうか。")
  ShowMessage("だとすれば、変わるべきはまず我々かもしれん……")
  0()



EVENT   96
 PAGE   1
  ShowMessageFace("",0,0,2,1)
  ShowMessage("\\n<神官>科学の書など、全て焼き捨ててしまえ。")
  ShowMessage("その次に、大衆どもが読むつまらん娯楽書を廃絶するのだ。")
  ShowMessageFace("",0,0,2,2)
  ShowMessage("\\n<神官>そうなれば、神の言葉が記された書のみになる。")
  ShowMessage("この町にも信仰が戻り、我らは正しい道を進むであろう。")
  355("actor_label_jump")
  EndEventProcessing()
  DefineLabel("531")
  ShowMessageFace("saniria_fc2",0,0,2,3)
  ShowMessage("\\n<King of San Ilia>なんと愚かな……")
  EndEventProcessing()
  0()



EVENT   97
 PAGE   1
  ShowMessageFace("",0,0,2,1)
  ShowMessage("\\n<神官>昔はみな純粋で、神に尽くす喜びに溢れていた。")
  ShowMessage("しかし現代、人々の心は物欲に支配され、濁りきっている……")
  0()



EVENT   98
 PAGE   1
  ShowMessageFace("",0,0,2,1)
  ShowMessage("\\n<宿屋娘>ああ、いそがしい……いそがしい……")
  0()



EVENT   99
 PAGE   1
  ShowMessageFace("hutakuti_fc1",1,0,2,1)
  ShowMessage("\\n<二口娘>アルバイトです。")
  ShowMessage("つまみ食いもしていますよ♪")
  ShowMessageFace("hutakuti_fc1",2,0,2,2)
  ShowMessage("\\n<二口娘>……今のは、後ろのお口が言いました。")
  0()



EVENT   100
 PAGE   1
  ShowMessageFace("",0,0,2,1)
  ShowMessage("\\n<宿屋の主人>あら、うちの宿にようこそお越し下さいました。")
  ShowMessage("人も魔物も分け隔てなくおもてなし、がこの宿のモットーですわ。")
  0()



EVENT   101
 PAGE   1
  ShowMessageFace("scylla_s_fc1",0,0,2,1)
  ShowMessage("\\n<スキュラサーバント>おそうじ♪　おそうじ♪")
  0()



EVENT   102
 PAGE   1
  ShowMessageFace("",0,0,2,1)
  ShowMessage("\\n<帳簿娘>世の中が乱れると、旅人が多くなります。")
  ShowMessage("皮肉ですが、うちの宿が繁盛するんですよね……")
  0()



EVENT   103
 PAGE   1
  ShowMessageFace("",0,0,2,1)
  ShowMessage("\\n<宿屋娘>ここに泊まる方は、みんな疲れ切った顔をしています。")
  ShowMessage("この町で勇者をリタイアされる方も多いのですよ……")
  355("actor_label_jump")
  EndEventProcessing()
  DefineLabel("538")
  ShowMessageFace("heinrich_fc1",7,0,2,2)
  ShowMessage("\\n<Heinrich>確かに、この大陸じゃ辛さも頂点だろうね……")
  EndEventProcessing()
  0()



EVENT   104
 PAGE   1
  ShowMessageFace("ustrel_fc1",0,0,2,1)
  ShowMessage("\\n<ウーストレル>ここは良い町ですね……")
  ShowMessage("故郷のグランドノアでは、魔物が買い物などできません。")
  0()



EVENT   105
 PAGE   1
  ShowMessageFace("",0,0,2,1)
  ShowMessage("\\n<旅の勇者>苦節十年、ようやくレミナに辿り着いた……")
  ShowMessage("しかし自身に限界を感じ、ここで剣を置こうと思う。")
  ShowMessageFace("",0,0,2,2)
  ShowMessage("\\n<旅の勇者>そういうわけで思いっきり羽目を外し、女性の誘惑にも乗ってみた！")
  ShowMessage("長い旅の間、こういう楽しみからは遠ざかっていたからな！")
  0()



EVENT   106
 PAGE   1
  ShowMessageFace("succubuses_fc3",0,0,2,1)
  ShowMessage("\\n<サキュバス>この町、こういう男が多いからチョロいのよね……♪")
  0()



EVENT   107
 PAGE   1
  ShowMessageFace("",0,0,2,1)
  ShowMessage("\\n<宿屋娘>引退した勇者達が、なぜかここに武具を置いていくんです。")
  ShowMessage("何かの記念のつもりなんですかね……？")
  0()



EVENT   108
 PAGE   1
  ShowMessageFace("",0,0,2,1)
  ShowMessage("\\n<旅の勇者>さすがに魔王城のお膝元、良い武具を扱っているな……")
  0()



EVENT   109
 PAGE   1
  ShowMessageFace("vampire_fc1",0,0,2,1)
  ShowMessage("\\n<ヴァンパイア>これが、銃……")
  ShowMessage("ゴルド西のタルタロスから発掘された未知の武器らしいわよ。")
  0()



EVENT   110
 PAGE   1
  ShowMessageFace("elf_fc1",0,0,2,1)
  ShowMessage("\\n<エルフ>最近は、排他主義的な魔物も多いわ。")
  ShowMessage("黒のアリスの台頭が、人間だけでなく魔物の心も乱しているの。")
  355("actor_label_jump")
  EndEventProcessing()
  DefineLabel("45")
  ShowMessageFace("alicetromeria_fc1",4,0,2,2)
  ShowMessage("\\n<Alicetroemeria>誰も彼もが己を晒す……")
  ShowMessage("愉快ではありませんか。")
  EndEventProcessing()
  0()



EVENT   111
 PAGE   1
  ShowMessageFace("",0,0,2,1)
  ShowMessage("\\n<男>噂によると、エディナ姫には想い人がいるそうだ。")
  ShowMessage("まさか私ではないだろうな……")
  0()



EVENT   112
 PAGE   1
  ShowMessageFace("",0,0,2,1)
  ShowMessage("\\n<女性>エディナ姫みたいな美人になりたいな……")
  0()



EVENT   113
 PAGE   1
  250(bytes(0x04,0x08,0x6f,0x3a,0x0c,0x52,0x50,0x47,0x3a,0x3a,0x53,0x45,0x08,0x3a,0x0a,0x40,0x6e,0x61,0x6d,0x65,0x49,0x22,0x0a,0x49,0x74,0x65,0x6d,0x31,0x06,0x3a,0x06,0x45,0x54,0x3a,0x0b,0x40,0x70,0x69,0x74,0x63,0x68,0x69,0x69,0x3a,0x0c,0x40,0x76,0x6f,0x6c,0x75,0x6d,0x65,0x69,0x55))
  ChangeSelfSwitch("A",0)
  ChangeInventory_Item(210,0,0,1)
  0()
 PAGE   2
  // condition: self-switch A is ON
  0()



EVENT   114
 PAGE   1
  250(bytes(0x04,0x08,0x6f,0x3a,0x0c,0x52,0x50,0x47,0x3a,0x3a,0x53,0x45,0x08,0x3a,0x0a,0x40,0x6e,0x61,0x6d,0x65,0x49,0x22,0x0a,0x49,0x74,0x65,0x6d,0x31,0x06,0x3a,0x06,0x45,0x54,0x3a,0x0b,0x40,0x70,0x69,0x74,0x63,0x68,0x69,0x69,0x3a,0x0c,0x40,0x76,0x6f,0x6c,0x75,0x6d,0x65,0x69,0x55))
  ChangeSelfSwitch("A",0)
  ChangeInventory_Item(414,0,0,1)
  0()
 PAGE   2
  // condition: self-switch A is ON
  0()



EVENT   115
 PAGE   1
  250(bytes(0x04,0x08,0x6f,0x3a,0x0c,0x52,0x50,0x47,0x3a,0x3a,0x53,0x45,0x08,0x3a,0x0a,0x40,0x6e,0x61,0x6d,0x65,0x49,0x22,0x0a,0x49,0x74,0x65,0x6d,0x31,0x06,0x3a,0x06,0x45,0x54,0x3a,0x0b,0x40,0x70,0x69,0x74,0x63,0x68,0x69,0x69,0x3a,0x0c,0x40,0x76,0x6f,0x6c,0x75,0x6d,0x65,0x69,0x55))
  ChangeSelfSwitch("A",0)
  ChangeInventory_Item(225,0,0,1)
  0()
 PAGE   2
  // condition: self-switch A is ON
  0()



EVENT   116
 PAGE   1
  250(bytes(0x04,0x08,0x6f,0x3a,0x0c,0x52,0x50,0x47,0x3a,0x3a,0x53,0x45,0x08,0x3a,0x0a,0x40,0x6e,0x61,0x6d,0x65,0x49,0x22,0x0a,0x49,0x74,0x65,0x6d,0x31,0x06,0x3a,0x06,0x45,0x54,0x3a,0x0b,0x40,0x70,0x69,0x74,0x63,0x68,0x69,0x69,0x3a,0x0c,0x40,0x76,0x6f,0x6c,0x75,0x6d,0x65,0x69,0x55))
  ChangeSelfSwitch("A",0)
  ChangeInventory_Item(208,0,0,1)
  0()
 PAGE   2
  // condition: self-switch A is ON
  0()



EVENT   117
 PAGE   1
  250(bytes(0x04,0x08,0x6f,0x3a,0x0c,0x52,0x50,0x47,0x3a,0x3a,0x53,0x45,0x08,0x3a,0x0a,0x40,0x6e,0x61,0x6d,0x65,0x49,0x22,0x0a,0x49,0x74,0x65,0x6d,0x31,0x06,0x3a,0x06,0x45,0x54,0x3a,0x0b,0x40,0x70,0x69,0x74,0x63,0x68,0x69,0x69,0x3a,0x0c,0x40,0x76,0x6f,0x6c,0x75,0x6d,0x65,0x69,0x55))
  ChangeSelfSwitch("A",0)
  ChangeInventory_Item(7,0,0,1)
  0()
 PAGE   2
  // condition: self-switch A is ON
  0()



EVENT   118
 PAGE   1
  250(bytes(0x04,0x08,0x6f,0x3a,0x0c,0x52,0x50,0x47,0x3a,0x3a,0x53,0x45,0x08,0x3a,0x0a,0x40,0x6e,0x61,0x6d,0x65,0x49,0x22,0x0a,0x49,0x74,0x65,0x6d,0x31,0x06,0x3a,0x06,0x45,0x54,0x3a,0x0b,0x40,0x70,0x69,0x74,0x63,0x68,0x69,0x69,0x3a,0x0c,0x40,0x76,0x6f,0x6c,0x75,0x6d,0x65,0x69,0x55))
  ChangeSelfSwitch("A",0)
  ChangeInventory_Item(202,0,0,1)
  0()
 PAGE   2
  // condition: self-switch A is ON
  0()



EVENT   119
 PAGE   1
  250(bytes(0x04,0x08,0x6f,0x3a,0x0c,0x52,0x50,0x47,0x3a,0x3a,0x53,0x45,0x08,0x3a,0x0a,0x40,0x6e,0x61,0x6d,0x65,0x49,0x22,0x0a,0x49,0x74,0x65,0x6d,0x31,0x06,0x3a,0x06,0x45,0x54,0x3a,0x0b,0x40,0x70,0x69,0x74,0x63,0x68,0x69,0x69,0x3a,0x0c,0x40,0x76,0x6f,0x6c,0x75,0x6d,0x65,0x69,0x55))
  ChangeSelfSwitch("A",0)
  ChangeInventory_Item(376,0,0,1)
  0()
 PAGE   2
  // condition: self-switch A is ON
  0()



EVENT   120
 PAGE   1
  If(2,"A",1)
   ShowMessageFace("",0,0,2,1)
   ShowMessage("\\n<所長>ここは研究機関ですが、同時に教育機関でもあります。")
   ShowMessage("我が校を卒業した者には、「科学の極み」が与えられるのですよ。")
   If(0,4,0)
    ShowMessageFace("alice_fc5",0,0,2,2)
    ShowMessage("\\n<Alice>「科学の極み」とは、確か……")
    ShowMessage("科学系職業の最上級職に就けるようになる転職アイテムだな。")
    0()
   EndIf()
   If(0,5,0)
    ShowMessageFace("iriasu_fc4",0,0,2,3)
    ShowMessage("\\n<Ilias>「科学の極み」とは、確か……")
    ShowMessage("科学系職業の最上級職に就けるようになる転職アイテムのはず。")
    0()
   EndIf()
   If(0,1041,0)
    ShowMessageFace("stein_fc2",0,0,2,4)
    ShowMessage("\\n<Promestein>それは、ぜひ欲しいアイテムですね……")
    ShowMessage("分かりました、私が入学しましょう。")
    ShowMessageFace("",0,0,2,5)
    ShowMessage("\\n<所長>君が、入学を……？")
    ShowMessage("しかし我が校の入学試験は、世界で最も――")
    ShowMessageFace("stein_fc2",0,0,2,6)
    ShowMessage("\\n<Promestein>……出来ました。")
    ShowMessage("化学の基礎ですね。")
    ShowMessageFace("",0,0,2,7)
    ShowMessage("\\n<所長>な、なんと！")
    ShowMessage("しかし飛び級制度があるとはいえ、我が校のカリキュラムは――")
    221()
    ShowMessageFace("",0,0,2,8)
    ShowMessage("十七分後――")
    Wait(60)
    222()
    ShowMessageFace("stein_fc2",0,0,2,9)
    ShowMessage("\\n<Promestein>……終わりました。")
    ShowMessage("これで卒業ですね、お世話になりました。")
    250(bytes(0x04,0x08,0x6f,0x3a,0x0c,0x52,0x50,0x47,0x3a,0x3a,0x53,0x45,0x08,0x3a,0x0a,0x40,0x6e,0x61,0x6d,0x65,0x49,0x22,0x0a,0x49,0x74,0x65,0x6d,0x31,0x06,0x3a,0x06,0x45,0x54,0x3a,0x0b,0x40,0x70,0x69,0x74,0x63,0x68,0x69,0x69,0x3a,0x0c,0x40,0x76,0x6f,0x6c,0x75,0x6d,0x65,0x69,0x55))
    ChangeSelfSwitch("A",0)
    ChangeInventory_Item(631,0,0,1)
    If(0,4,0)
     ShowMessageFace("alice_fc5",1,0,2,10)
     ShowMessage("\\n<Alice>これがあれば、科学系職業の最上級職に就けるな！")
     0()
    EndIf()
    If(0,5,0)
     ShowMessageFace("iriasu_fc4",0,0,2,11)
     ShowMessage("\\n<Ilias>これがあれば、科学系職業の最上級職に就けますね！")
     0()
    EndIf()
    ShowMessageFace("",0,0,2,12)
    ShowMessage("\\n<所長>な、なんという逸材……")
    ShowMessage("ぜひ我が校の客員教授に！　無理ならば、私のお嫁さんに！")
    ShowMessageFace("stein_fc2",0,0,2,13)
    ShowMessage("\\n<Promestein>嫌です。")
    EndEventProcessing()
    0()
   Else()
    ShowMessageFace("ruka_fc1",0,0,2,14)
    ShowMessage("\\n<Luka>ぜひ欲しいアイテムだけど……")
    ShowMessage("そのために入学ってのは、現実的じゃないね。")
    EndEventProcessing()
    0()
   EndIf()
   0()
  Else()
   ShowMessageFace("",0,0,2,15)
   ShowMessage("\\n<所長>な、なんという逸材……")
   ShowMessage("ぜひ我が校の客員教授に！　無理ならば、私のお嫁さんに！")
   ShowMessageFace("stein_fc2",0,0,2,16)
   ShowMessage("\\n<Promestein>嫌です。")
   EndEventProcessing()
   0()
  EndIf()
  0()
