﻿// EVENT 0671
Name "Event: Queen Elf"

ChangeSwitch(73,73,0)
If(1,129,0,0,0)
 ShowMessageFace("queenelf_fc1",0,0,2,1)
 ShowMessage("【クィーンエルフ】")
 ShowMessage("エルフの女王に伝わる、太古の弓技を教えましょう。")
 ShowMessage("それとも、弓技が他能力に依存するアビリティが良いですか？")
 DefineLabel("選択")
 ShowChoices(strings("Elemental Arrow","Bow Ability Set","No thanks"),3)
 IfPlayerPicksChoice(0,null)
  ShowMessageFace("",0,0,2,2)
  ShowMessage("Who will learn Elemental Arrow?")
  355("names = party_members.collect{|m|m.name}")
  655("unlimited_choices(11, names)")
  655("actor = party_members[$game_variables[11]]")
  655("$game_variables[10] = actor ? actor.id : 0")
  If(1,10,0,0,0)
   ChangeSwitch(73,73,1)
   EndEventProcessing()
   0()
  EndIf()
  If(12,"actor_skill_have?(v(10),1221)")
   ShowMessageFace("",0,0,2,3)
   ShowMessage("That character already knows Elemental Arrow...")
   JumpToLabel("選択")
   0()
  EndIf()
  ChangeVariable(129,129,0,0,1)
  318(1,10,0,1221)
  250(bytes(0x04,0x08,0x6f,0x3a,0x0c,0x52,0x50,0x47,0x3a,0x3a,0x53,0x45,0x08,0x3a,0x0a,0x40,0x6e,0x61,0x6d,0x65,0x49,0x22,0x0a,0x49,0x74,0x65,0x6d,0x31,0x06,0x3a,0x06,0x45,0x54,0x3a,0x0b,0x40,0x70,0x69,0x74,0x63,0x68,0x69,0x69,0x3a,0x0c,0x40,0x76,0x6f,0x6c,0x75,0x6d,0x65,0x69,0x55))
  ShowMessageFace("",0,0,2,4)
  ShowMessage("You learned \\I[1345]\\C[1]Elemental Arrow\\C[0]!")
  ChangeSwitch(73,73,1)
  EndEventProcessing()
  0()
 IfPlayerPicksChoice(1,null)
  ShowMessageFace("",0,0,2,5)
  ShowMessage("Who will learn the Bow Ability Set?")
  355("names = party_members.collect{|m|m.name}")
  655("unlimited_choices(11, names)")
  655("actor = party_members[$game_variables[11]]")
  655("$game_variables[10] = actor ? actor.id : 0")
  If(1,10,0,0,0)
   ChangeSwitch(73,73,1)
   EndEventProcessing()
   0()
  EndIf()
  If(12,"actor_skill_have?(v(10),428)")
   ShowMessageFace("",0,0,2,6)
   ShowMessage("That character already has that set...")
   JumpToLabel("選択")
   0()
  EndIf()
  ChangeVariable(129,129,0,0,1)
  318(1,10,0,428)
  318(1,10,0,429)
  318(1,10,0,430)
  250(bytes(0x04,0x08,0x6f,0x3a,0x0c,0x52,0x50,0x47,0x3a,0x3a,0x53,0x45,0x08,0x3a,0x0a,0x40,0x6e,0x61,0x6d,0x65,0x49,0x22,0x0a,0x49,0x74,0x65,0x6d,0x31,0x06,0x3a,0x06,0x45,0x54,0x3a,0x0b,0x40,0x70,0x69,0x74,0x63,0x68,0x69,0x69,0x3a,0x0c,0x40,0x76,0x6f,0x6c,0x75,0x6d,0x65,0x69,0x55))
  ShowMessageFace("",0,0,2,7)
  ShowMessage("You learned \\I[97]\\C[1]Technical Arrow\\C[0]!")
  ShowMessage("You learned \\I[97]\\C[1]Magical Arrow\\C[0]!")
  ShowMessage("You learned \\I[97]\\C[1]Mind Arrow\\C[0]!")
  ChangeSwitch(73,73,1)
  EndEventProcessing()
  0()
 IfPlayerPicksChoice(2,null)
  ChangeSwitch(73,73,1)
  EndEventProcessing()
  0()
 404()
 0()
EndIf()
If(1,129,0,1,0)
 ShowMessageFace("queenelf_fc1",0,0,2,8)
 ShowMessage("【クィーンエルフ】")
 ShowMessage("弓はエルフの伝統技能……")
 ShowMessage("女王となった今でも、鍛錬は欠かしていません。")
 ChangeSwitch(73,73,1)
 EndEventProcessing()
 0()
EndIf()
0()
