﻿// EVENT 0658
Name "Event: Priestess"

ChangeSwitch(73,73,0)
If(0,437,0)
 ShowMessageFace("a_emp_fc1",0,0,2,1)
 ShowMessage("【プリエステス】")
 ShowMessage("村に帰りたくありません……")
 ChangeSwitch(73,73,1)
 EndEventProcessing()
 0()
EndIf()
ShowMessageFace("a_emp_fc1",1,0,2,2)
ShowMessage("【プリエステス】")
ShowMessage("この、不思議な種を体に植えれば……")
ChangeSwitch(437,437,0)
250(bytes(0x04,0x08,0x6f,0x3a,0x0c,0x52,0x50,0x47,0x3a,0x3a,0x53,0x45,0x08,0x3a,0x0a,0x40,0x6e,0x61,0x6d,0x65,0x49,0x22,0x0a,0x48,0x65,0x61,0x6c,0x37,0x06,0x3a,0x06,0x45,0x54,0x3a,0x0b,0x40,0x70,0x69,0x74,0x63,0x68,0x69,0x69,0x3a,0x0c,0x40,0x76,0x6f,0x6c,0x75,0x6d,0x65,0x69,0x55))
ShowMessageFace("",0,0,2,3)
ShowMessage("プリエステスから不思議な力が与えられた！")
ShowMessage("次のボスフロアまで、植物技の威力が二倍になる！")
ChangeSwitch(73,73,1)
EndEventProcessing()
0()
